{"content":[{"id":13173,"createdAt":1658832883863,"certificate":true,"gender":false,"name":"조서연","year":1968,"phone":"010-2625-0559","city":"전북","ward":"김제시","town":"황산동","work_kinds":"방문요양 ","career":1,"prefer_gender":"여자 ","dementia":true,"covid":true,"privacy":true,"hopeArea":"전북 전주시 완산구","writer":"","lastModifiedDate":"","modifier":"","msgLastSendTime1":"","msgLastSendTime2":"","msgLastSendTime3":"","sendNumber1":"","sendNumber2":"","sendNumber3":"","black":false,"blackReason":"","information":"이력/경력사항 : \n요보사가 원하는 사항 : \n면접 특이사항 : ","takerProgress":"1. 수급자 지역 : \n2. 수급자 전화번호: \n3. 수급자 날짜별 진행 상황 : "},{"id":13172,"createdAt":1658830982026,"certificate":true,"gender":false,"name":"어성례","year":1960,"phone":"010-8014-8384","city":"경기","ward":"김포시","town":"통진읍","work_kinds":"방문요양 입주요양 ","career":1,"prefer_gender":"여자 ","dementia":false,"covid":true,"privacy":true,"writer":"","lastModifiedDate":"","modifier":"","msgLastSendTime1":"","msgLastSendTime2":"","msgLastSendTime3":"","sendNumber1":"","sendNumber2":"","sendNumber3":"","black":false,"blackReason":"","information":"이력/경력사항 : \n요보사가 원하는 사항 : \n면접 특이사항 : ","takerProgress":"1. 수급자 지역 : \n2. 수급자 전화번호: \n3. 수급자 날짜별 진행 상황 : "},{"id":13171,"createdAt":1658830260649,"certificate":true,"gender":false,"name":"홍효숙","year":1963,"phone":"010-5886-8102","city":"광주","ward":"서구","town":"금호동","work_kinds":"방문요양 ","career":3,"prefer_gender":"여자 ","dementia":true,"covid":true,"privacy":true,"writer":"","lastModifiedDate":"","modifier":"","msgLastSendTime1":"","msgLastSendTime2":"","msgLastSendTime3":"","sendNumber1":"","sendNumber2":"","sendNumber3":"","black":false,"blackReason":"","information":"이력/경력사항 : \n요보사가 원하는 사항 : \n면접 특이사항 : ","takerProgress":"1. 수급자 지역 : \n2. 수급자 전화번호: \n3. 수급자 날짜별 진행 상황 : "},{"id":13170,"createdAt":1658828230841,"certificate":true,"gender":false,"name":"최윤선","year":1964,"phone":"010-9724-5824","city":"경북","ward":"경주시","town":"황성동","work_kinds":"방문요양 방문목욕 ","career":1,"prefer_gender":"여자 남자","dementia":false,"covid":true,"privacy":true,"writer":"","lastModifiedDate":"","modifier":"","msgLastSendTime1":"","msgLastSendTime2":"","msgLastSendTime3":"","sendNumber1":"","sendNumber2":"","sendNumber3":"","black":false,"blackReason":"","information":"이력/경력사항 : \n요보사가 원하는 사항 : \n면접 특이사항 : ","takerProgress":"1. 수급자 지역 : \n2. 수급자 전화번호: \n3. 수급자 날짜별 진행 상황 : "},{"id":13169,"createdAt":1658826097659,"certificate":true,"gender":false,"name":"홍연아 ","year":1962,"phone":"010-6784-5578","city":"부산","ward":"사상구","town":"주례동","work_kinds":"방문요양 ","career":0,"prefer_gender":"여자 ","dementia":false,"covid":true,"privacy":true,"hopeArea":"부산 부산진구","writer":"","lastModifiedDate":"","modifier":"","msgLastSendTime1":"","msgLastSendTime2":"","msgLastSendTime3":"","sendNumber1":"","sendNumber2":"","sendNumber3":"","black":false,"blackReason":"","information":"이력/경력사항 : \n요보사가 원하는 사항 : \n면접 특이사항 : ","takerProgress":"1. 수급자 지역 : \n2. 수급자 전화번호: \n3. 수급자 날짜별 진행 상황 : "},{"id":13168,"createdAt":1658825951704,"certificate":true,"gender":true,"name":"이충형","year":1949,"phone":"010-8787-1272","city":"충북","ward":"음성군","town":"음성읍","work_kinds":"방문요양 요양시설","career":7,"prefer_gender":"여자 남자","dementia":false,"covid":true,"privacy":true,"writer":"","lastModifiedDate":"","modifier":"","msgLastSendTime1":"","msgLastSendTime2":"","msgLastSendTime3":"","sendNumber1":"","sendNumber2":"","sendNumber3":"","black":false,"blackReason":"","information":"이력/경력사항 : \n요보사가 원하는 사항 : \n면접 특이사항 : ","takerProgress":"1. 수급자 지역 : \n2. 수급자 전화번호: \n3. 수급자 날짜별 진행 상황 : "},{"id":13167,"createdAt":1658825713377,"certificate":true,"gender":false,"name":"박나겸 ","year":1969,"phone":"010-6460-9097","city":"경북","ward":"경산시","town":"하양읍","address":"","work_kinds":"방문요양 입주요양 요양시설","career":2,"prefer_gender":"여자 남자","dementia":true,"covid":true,"privacy":true,"hopeArea":"","writer":"","lastModifiedDate":"","modifier":"","msgLastSendTime1":"","msgLastSendTime2":"","msgLastSendTime3":"","sendNumber1":"","sendNumber2":"","sendNumber3":"","black":false,"blackReason":"","information":"이력/경력사항 : \n요보사가 원하는 사항 : \n면접 특이사항 : ","takerProgress":"1. 수급자 지역 : \n2. 수급자 전화번호: \n3. 수급자 날짜별 진행 상황 : "}],"pageable":{"sort":{"sorted":false,"unsorted":true,"empty":true},"pageSize":7,"pageNumber":0,"offset":0,"unpaged":false,"paged":true},"last":false,"totalElements":12572,"totalPages":1796,"first":true,"sort":{"sorted":false,"unsorted":true,"empty":true},"numberOfElements":7,"size":7,"number":0,"empty":false}